{
  "rateLimit": {
    "cost": 1,
    "remaining": 4998,
    "resetAt": "2021-06-14T11:07:51Z"
  },
  "search": {
    "pageInfo": {
      "endCursor": "null",
      "hasNextPage": false
    },
    "repositoryCount": 10,
    "edges": [
      {
        "node": {
          "name": "che",
          "url": "https://github.com/eclipse/che",
          "owner": {
            "login": "eclipse"
          },
          "milestones": {
            "totalCount": 135,
            "pageInfo": {
              "endCursor": "Y3Vyc29yOnYyOpK5MjAxOS0wOS0xOFQwOTo1NjoxMCswMjowMM4AR0CI",
              "hasNextPage": true
            },
            "nodes": [
              {
                "title": "7.35",
                "number": 146,
                "description": "",
                "state": "OPEN",
                "dueOn": "2021-08-18T00:00:00Z"
              },
              {
                "title": "7.34",
                "number": 145,
                "description": "",
                "state": "OPEN",
                "dueOn": "2021-07-28T00:00:00Z"
              },
              {
                "title": "7.33",
                "number": 144,
                "description": "",
                "state": "OPEN",
                "dueOn": "2021-07-07T00:00:00Z"
              },
              {
                "title": "7.32",
                "number": 143,
                "description": "",
                "state": "OPEN",
                "dueOn": "2021-06-16T00:00:00Z"
              },
              {
                "title": "7.31",
                "number": 142,
                "description": "",
                "state": "CLOSED",
                "dueOn": "2021-05-26T00:00:00Z"
              },
              {
                "title": "7.30",
                "number": 141,
                "description": "",
                "state": "CLOSED",
                "dueOn": null
              },
              {
                "title": " DevWorkspace Integration - STEP3",
                "number": 140,
                "description": null,
                "state": "OPEN",
                "dueOn": null
              },
              {
                "title": "DevWorkspace Integration - STEP2",
                "number": 139,
                "description": "",
                "state": "OPEN",
                "dueOn": "2021-06-16T00:00:00Z"
              },
              {
                "title": "7.28",
                "number": 138,
                "description": "",
                "state": "CLOSED",
                "dueOn": "2021-03-24T00:00:00Z"
              },
              {
                "title": "7.29",
                "number": 137,
                "description": "",
                "state": "CLOSED",
                "dueOn": null
              },
              {
                "title": "DevWorkspace Integration - STEP1",
                "number": 136,
                "description": "Devfile v2 support",
                "state": "CLOSED",
                "dueOn": "2021-03-10T00:00:00Z"
              },
              {
                "title": "7.27",
                "number": 135,
                "description": "",
                "state": "CLOSED",
                "dueOn": "2021-03-03T00:00:00Z"
              },
              {
                "title": "7.26",
                "number": 134,
                "description": "",
                "state": "CLOSED",
                "dueOn": "2021-02-10T00:00:00Z"
              },
              {
                "title": "7.25",
                "number": 133,
                "description": "",
                "state": "CLOSED",
                "dueOn": "2021-02-03T00:00:00Z"
              },
              {
                "title": "7.20.1",
                "number": 132,
                "description": null,
                "state": "CLOSED",
                "dueOn": null
              },
              {
                "title": "7.24",
                "number": 131,
                "description": "",
                "state": "CLOSED",
                "dueOn": "2020-12-30T00:00:00Z"
              },
              {
                "title": "7.23",
                "number": 130,
                "description": "",
                "state": "CLOSED",
                "dueOn": "2020-12-09T00:00:00Z"
              },
              {
                "title": "7.22",
                "number": 129,
                "description": "",
                "state": "CLOSED",
                "dueOn": "2020-11-18T00:00:00Z"
              },
              {
                "title": "7.21",
                "number": 128,
                "description": "",
                "state": "CLOSED",
                "dueOn": "2020-10-28T00:00:00Z"
              },
              {
                "title": "7.19.1",
                "number": 127,
                "description": null,
                "state": "CLOSED",
                "dueOn": null
              },
              {
                "title": "8.x",
                "number": 126,
                "description": "Issues that should land in a 8.x release.",
                "state": "OPEN",
                "dueOn": null
              },
              {
                "title": "7.20",
                "number": 125,
                "description": "Release (7.y.0) runs on Wednesday after the sprint ends, with weekly 7.y.z releases (as needed) for the 2 weeks thereafter, also on Wednesday.",
                "state": "CLOSED",
                "dueOn": "2020-10-07T00:00:00Z"
              },
              {
                "title": "7.19",
                "number": 124,
                "description": "Release (7.y.0) runs on Wednesday after the sprint ends, with weekly 7.y.z releases (as needed) for the 2 weeks thereafter, also on Wednesday.",
                "state": "CLOSED",
                "dueOn": "2020-09-16T00:00:00Z"
              },
              {
                "title": "7.18",
                "number": 123,
                "description": "Release (7.y.0) runs on Wednesday after the sprint ends, with weekly 7.y.z releases (as needed) for the 2 weeks thereafter, also on Wednesday.",
                "state": "CLOSED",
                "dueOn": "2020-08-26T00:00:00Z"
              },
              {
                "title": "7.17",
                "number": 122,
                "description": "Release (7.y.0) runs on Wednesday after the sprint ends, with weekly 7.y.z releases (as needed) for the 2 weeks thereafter, also on Wednesday.",
                "state": "CLOSED",
                "dueOn": "2020-08-05T00:00:00Z"
              },
              {
                "title": "7.16",
                "number": 121,
                "description": "Release (7.y.0) runs on Wednesday after the sprint ends, with weekly 7.y.z releases (as needed) for the 2 weeks thereafter, also on Wednesday.",
                "state": "CLOSED",
                "dueOn": "2020-07-15T00:00:00Z"
              },
              {
                "title": "Deprecate Plugins - Sprint 184",
                "number": 120,
                "description": "Remove plugins that were deprecated in sprint 184, during sprint 188.",
                "state": "CLOSED",
                "dueOn": "2020-08-26T00:00:00Z"
              },
              {
                "title": "Backlog - Plugins",
                "number": 119,
                "description": "Backlogged issues for the Plugins Team.",
                "state": "OPEN",
                "dueOn": null
              },
              {
                "title": "7.15",
                "number": 118,
                "description": "Release (7.y.0) runs on Wednesday after the sprint ends, with weekly 7.y.z releases (as needed) for the 2 weeks thereafter, also on Wednesday.",
                "state": "CLOSED",
                "dueOn": "2020-06-24T00:00:00Z"
              },
              {
                "title": "7.14",
                "number": 117,
                "description": "Release starts on last day of sprint and generally takes a week to complete",
                "state": "CLOSED",
                "dueOn": "2020-06-08T00:00:00Z"
              },
              {
                "title": "7.13",
                "number": 116,
                "description": "Release starts on last day of sprint and generally takes a week to complete",
                "state": "CLOSED",
                "dueOn": "2020-05-18T00:00:00Z"
              },
              {
                "title": "7.12",
                "number": 115,
                "description": "Release starts on last day of sprint and we hope to switch to a fully-automated 1-day release as of 7.12",
                "state": "CLOSED",
                "dueOn": "2020-04-27T00:00:00Z"
              },
              {
                "title": "7.11",
                "number": 114,
                "description": "Release starts on last day of sprint and took until 07/04/2020 to complete",
                "state": "CLOSED",
                "dueOn": "2020-04-07T00:00:00Z"
              },
              {
                "title": "7.10",
                "number": 113,
                "description": "",
                "state": "CLOSED",
                "dueOn": "2020-03-18T00:00:00Z"
              },
              {
                "title": "7.9.0",
                "number": 112,
                "description": "",
                "state": "CLOSED",
                "dueOn": "2020-02-19T00:00:00Z"
              },
              {
                "title": "7.8.0",
                "number": 111,
                "description": "",
                "state": "CLOSED",
                "dueOn": "2020-01-29T00:00:00Z"
              },
              {
                "title": "7.7.0",
                "number": 110,
                "description": "",
                "state": "CLOSED",
                "dueOn": "2020-01-08T00:00:00Z"
              },
              {
                "title": "Backlog - Deploy",
                "number": 109,
                "description": "Backlog of issues - Deploy issues only! Use this milestone to order/rank delivery plan.",
                "state": "OPEN",
                "dueOn": null
              },
              {
                "title": "Backlog - Controller",
                "number": 108,
                "description": "Backlog of issues - Controller issues only! Use this milestone to order/rank delivery plan.",
                "state": "OPEN",
                "dueOn": null
              },
              {
                "title": "7.6.0",
                "number": 107,
                "description": "",
                "state": "CLOSED",
                "dueOn": "2019-12-18T00:00:00Z"
              },
              {
                "title": "7.3.2",
                "number": 106,
                "description": null,
                "state": "CLOSED",
                "dueOn": null
              },
              {
                "title": "7.5.0",
                "number": 105,
                "description": "",
                "state": "CLOSED",
                "dueOn": "2019-11-27T00:00:00Z"
              },
              {
                "title": "7.3.1",
                "number": 104,
                "description": null,
                "state": "CLOSED",
                "dueOn": null
              },
              {
                "title": "Backlog - Developer Experience",
                "number": 102,
                "description": "Backlog of issues - Devex issues only! Use this milestone to order/rank delivery plan.\r\n\r\n",
                "state": "OPEN",
                "dueOn": null
              },
              {
                "title": "Backlog - Hosted Che",
                "number": 100,
                "description": "",
                "state": "OPEN",
                "dueOn": null
              },
              {
                "title": "7.4.0",
                "number": 99,
                "description": "",
                "state": "CLOSED",
                "dueOn": "2019-11-06T00:00:00Z"
              },
              {
                "title": "Backlog - Productization",
                "number": 98,
                "description": "See https://issues.jboss.org/secure/RapidBoard.jspa?projectKey=CRW&rapidView=4453&view=planning for CRW backlog\r\n",
                "state": "CLOSED",
                "dueOn": null
              },
              {
                "title": "Backlog - QE",
                "number": 97,
                "description": "Backlog of issues - QE issues only!\r\n\r\nUse this milestone to order/rank delivery plan.",
                "state": "OPEN",
                "dueOn": null
              },
              {
                "title": "Backlog - IDE 2",
                "number": 96,
                "description": "Backlog of issues - IDE 2 issues only!\r\n\r\nUse this milestone to order/rank delivery plan.",
                "state": "OPEN",
                "dueOn": null
              },
              {
                "title": "Backlog - IDE 1",
                "number": 95,
                "description": "Backlog of issues - IDE 1 issues only!\r\n\r\nUse this milestone to order/rank delivery plan.",
                "state": "OPEN",
                "dueOn": null
              }
            ]
          }
        }
      }
    ]
  }
}
